digraph "D:/Users/Jack/Desktop/BCB/trunk/V3.01/Code/BCB_Code_Pro_V3.01/users/global/ahrs_global_type.h"
{
  edge [fontname="Helvetica",fontsize="10",labelfontname="Helvetica",labelfontsize="10"];
  node [fontname="Helvetica",fontsize="10",shape=record];
  Node5 [label="D:/Users/Jack/Desktop\l/BCB/trunk/V3.01/Code\l/BCB_Code_Pro_V3.01/users\l/global/ahrs_global_type.h",height=0.2,width=0.4,color="black", fillcolor="grey75", style="filled", fontcolor="black"];
  Node5 -> Node6 [dir="back",color="midnightblue",fontsize="10",style="solid",fontname="Helvetica"];
  Node6 [label="D:/Users/Jack/Desktop\l/BCB/trunk/V3.01/Code\l/BCB_Code_Pro_V3.01/users\l/global/ahrs_global_func.h",height=0.2,width=0.4,color="black", fillcolor="white", style="filled",URL="$ahrs__global__func_8h.html",tooltip="some global function.  detail "];
  Node6 -> Node7 [dir="back",color="midnightblue",fontsize="10",style="solid",fontname="Helvetica"];
  Node7 [label="D:/Users/Jack/Desktop\l/BCB/trunk/V3.01/Code\l/BCB_Code_Pro_V3.01/users\l/global/ahrs_global_func.c",height=0.2,width=0.4,color="black", fillcolor="white", style="filled",URL="$ahrs__global__func_8c.html",tooltip="some global function.  detail "];
}
