digraph "BSP"
{
  edge [fontname="Helvetica",fontsize="10",labelfontname="Helvetica",labelfontsize="10"];
  node [fontname="Helvetica",fontsize="10",shape=record];
  rankdir=LR;
  Node2 [label="CAN",height=0.2,width=0.4,color="black", fillcolor="white", style="filled",URL="$group___c_a_n.html",tooltip="Controller Area Network. "];
  Node0 [label="BSP",height=0.2,width=0.4,color="black", fillcolor="grey75", style="filled", fontcolor="black"];
  Node7 [label="RTC",height=0.2,width=0.4,color="black", fillcolor="white", style="filled",URL="$group___r_t_c.html",tooltip="Real-Time Clock. "];
  Node4 [label="IO",height=0.2,width=0.4,color="black", fillcolor="white", style="filled",URL="$group___i_o.html",tooltip="IO. "];
  Node9 [label="SPI",height=0.2,width=0.4,color="black", fillcolor="white", style="filled",URL="$group___s_p_i.html",tooltip="Serial Peripheral Interface. "];
  Node8 [label="SDIO",height=0.2,width=0.4,color="black", fillcolor="white", style="filled",URL="$group___s_d_i_o.html",tooltip="Secure Digital Input and Output. "];
  Node5 [label="LED",height=0.2,width=0.4,color="black", fillcolor="white", style="filled",URL="$group___l_e_d.html",tooltip="Light Emitting Diode. "];
  Node6 [label="RELAY",height=0.2,width=0.4,color="black", fillcolor="white", style="filled",URL="$group___r_e_l_a_y.html",tooltip="RELAY. "];
  Node1 [label="BEEP",height=0.2,width=0.4,color="black", fillcolor="white", style="filled",URL="$group___b_e_e_p.html",tooltip="BEEP. "];
  Node10 [label="USART",height=0.2,width=0.4,color="black", fillcolor="white", style="filled",URL="$group___u_s_a_r_t.html",tooltip="Universal Synchronous/Asynchronous Receiver/Transmitter. "];
  Node3 [label="IIC",height=0.2,width=0.4,color="black", fillcolor="white", style="filled",URL="$group___i_i_c.html",tooltip="Inter-Integrated Circuit. "];
  Node0->Node1 [shape=plaintext, dir="back", style="solid"];
  Node0->Node2 [shape=plaintext, dir="back", style="solid"];
  Node0->Node3 [shape=plaintext, dir="back", style="solid"];
  Node0->Node4 [shape=plaintext, dir="back", style="solid"];
  Node0->Node5 [shape=plaintext, dir="back", style="solid"];
  Node0->Node6 [shape=plaintext, dir="back", style="solid"];
  Node0->Node7 [shape=plaintext, dir="back", style="solid"];
  Node0->Node8 [shape=plaintext, dir="back", style="solid"];
  Node0->Node9 [shape=plaintext, dir="back", style="solid"];
  Node0->Node10 [shape=plaintext, dir="back", style="solid"];
}
