digraph "STM32_EVAL"
{
  edge [fontname="Helvetica",fontsize="10",labelfontname="Helvetica",labelfontsize="10"];
  node [fontname="Helvetica",fontsize="10",shape=record];
  rankdir=LR;
  Node2 [label="STM324xG_EVAL",height=0.2,width=0.4,color="black", fillcolor="white", style="filled",URL="$group___s_t_m324x_g___e_v_a_l.html"];
  Node1 [label="Utilities",height=0.2,width=0.4,color="black", fillcolor="white", style="filled",URL="$group___utilities.html"];
  Node0 [label="STM32_EVAL",height=0.2,width=0.4,color="black", fillcolor="grey75", style="filled", fontcolor="black"];
  Node1->Node0 [shape=plaintext, dir="back", style="solid"];
  Node0->Node2 [shape=plaintext, dir="back", style="solid"];
}
