digraph "STM324xG_EVAL_SDIO_SD_Private_Types"
{
  edge [fontname="Helvetica",fontsize="10",labelfontname="Helvetica",labelfontsize="10"];
  node [fontname="Helvetica",fontsize="10",shape=record];
  rankdir=LR;
  Node0 [label="STM324xG_EVAL_SDIO\l_SD_Private_Types",height=0.2,width=0.4,color="black", fillcolor="grey75", style="filled", fontcolor="black"];
  Node1 [label="SDIO_SD",height=0.2,width=0.4,color="black", fillcolor="white", style="filled",URL="$group___s_d_i_o___s_d.html",tooltip="This file provides all the SD Card driver firmware functions. "];
  Node1->Node0 [shape=plaintext, dir="back", style="solid"];
}
