digraph "D:/Users/Jack/Desktop/BCB/trunk/V3.01/Code/BCB_Code_Pro_V3.01/users/bsp/relay.h"
{
  edge [fontname="Helvetica",fontsize="10",labelfontname="Helvetica",labelfontsize="10"];
  node [fontname="Helvetica",fontsize="10",shape=record];
  Node0 [label="D:/Users/Jack/Desktop\l/BCB/trunk/V3.01/Code\l/BCB_Code_Pro_V3.01/users\l/bsp/relay.h",height=0.2,width=0.4,color="black", fillcolor="grey75", style="filled", fontcolor="black"];
  Node0 -> Node1 [color="midnightblue",fontsize="10",style="solid",fontname="Helvetica"];
  Node1 [label="bsp.h",height=0.2,width=0.4,color="black", fillcolor="white", style="filled",URL="$bsp_8h.html",tooltip="board support package  detail "];
  Node1 -> Node2 [color="midnightblue",fontsize="10",style="solid",fontname="Helvetica"];
  Node2 [label="string.h",height=0.2,width=0.4,color="grey75", fillcolor="white", style="filled"];
  Node1 -> Node3 [color="midnightblue",fontsize="10",style="solid",fontname="Helvetica"];
  Node3 [label="stdio.h",height=0.2,width=0.4,color="grey75", fillcolor="white", style="filled"];
  Node1 -> Node4 [color="midnightblue",fontsize="10",style="solid",fontname="Helvetica"];
  Node4 [label="stdarg.h",height=0.2,width=0.4,color="grey75", fillcolor="white", style="filled"];
  Node1 -> Node5 [color="midnightblue",fontsize="10",style="solid",fontname="Helvetica"];
  Node5 [label="assert.h",height=0.2,width=0.4,color="grey75", fillcolor="white", style="filled"];
  Node1 -> Node6 [color="midnightblue",fontsize="10",style="solid",fontname="Helvetica"];
  Node6 [label="stm32f4xx.h",height=0.2,width=0.4,color="grey75", fillcolor="white", style="filled"];
  Node1 -> Node7 [color="midnightblue",fontsize="10",style="solid",fontname="Helvetica"];
  Node7 [label="io.h",height=0.2,width=0.4,color="black", fillcolor="white", style="filled",URL="$io_8h.html",tooltip="Controller Area Network  detail. "];
  Node1 -> Node8 [color="midnightblue",fontsize="10",style="solid",fontname="Helvetica"];
  Node8 [label="usart.h",height=0.2,width=0.4,color="black", fillcolor="white", style="filled",URL="$usart_8h.html",tooltip="Universal Synchronous/Asynchronous Receiver/Transmitter  detail. "];
  Node8 -> Node1 [color="midnightblue",fontsize="10",style="solid",fontname="Helvetica"];
  Node1 -> Node9 [color="midnightblue",fontsize="10",style="solid",fontname="Helvetica"];
  Node9 [label="iic.h",height=0.2,width=0.4,color="black", fillcolor="white", style="filled",URL="$iic_8h.html",tooltip="Inter-Integrated Circuit  detail. "];
  Node9 -> Node1 [color="midnightblue",fontsize="10",style="solid",fontname="Helvetica"];
  Node1 -> Node10 [color="midnightblue",fontsize="10",style="solid",fontname="Helvetica"];
  Node10 [label="can.h",height=0.2,width=0.4,color="black", fillcolor="white", style="filled",URL="$can_8h.html",tooltip="Controller Area Network  detail. "];
  Node10 -> Node1 [color="midnightblue",fontsize="10",style="solid",fontname="Helvetica"];
  Node1 -> Node11 [color="midnightblue",fontsize="10",style="solid",fontname="Helvetica"];
  Node11 [label="beep.h",height=0.2,width=0.4,color="black", fillcolor="white", style="filled",URL="$beep_8h.html",tooltip="Controller Area Network  detail. "];
  Node11 -> Node1 [color="midnightblue",fontsize="10",style="solid",fontname="Helvetica"];
  Node1 -> Node12 [color="midnightblue",fontsize="10",style="solid",fontname="Helvetica"];
  Node12 [label="led.h",height=0.2,width=0.4,color="black", fillcolor="white", style="filled",URL="$led_8h.html",tooltip="Controller Area Network  detail. "];
  Node12 -> Node1 [color="midnightblue",fontsize="10",style="solid",fontname="Helvetica"];
  Node1 -> Node0 [color="midnightblue",fontsize="10",style="solid",fontname="Helvetica"];
  Node1 -> Node13 [color="midnightblue",fontsize="10",style="solid",fontname="Helvetica"];
  Node13 [label="sdio.h",height=0.2,width=0.4,color="black", fillcolor="white", style="filled",URL="$sdio_8h.html"];
  Node13 -> Node1 [color="midnightblue",fontsize="10",style="solid",fontname="Helvetica"];
}
