digraph "D:/Users/Jack/Desktop/BCB/trunk/V3.01/Code/BCB_Code_Pro_V3.01/users/bsp/stm32f10x_Adc_config.h"
{
  edge [fontname="Helvetica",fontsize="10",labelfontname="Helvetica",labelfontsize="10"];
  node [fontname="Helvetica",fontsize="10",shape=record];
  Node2 [label="D:/Users/Jack/Desktop\l/BCB/trunk/V3.01/Code\l/BCB_Code_Pro_V3.01/users\l/bsp/stm32f10x_Adc_config.h",height=0.2,width=0.4,color="black", fillcolor="grey75", style="filled", fontcolor="black"];
  Node2 -> Node3 [dir="back",color="midnightblue",fontsize="10",style="solid",fontname="Helvetica"];
  Node3 [label="D:/Users/Jack/Desktop\l/BCB/trunk/V3.01/Code\l/BCB_Code_Pro_V3.01/users\l/bsp/stm32f10x_Adc_config.c",height=0.2,width=0.4,color="black", fillcolor="white", style="filled",URL="$stm32f10x___adc__config_8c.html"];
}
