digraph "D:/Users/Jack/Desktop/BCB/trunk/V3.01/Code/BCB_Code_Pro_V3.01/users/bsp/stm32f10x_bsp_config.h"
{
  edge [fontname="Helvetica",fontsize="10",labelfontname="Helvetica",labelfontsize="10"];
  node [fontname="Helvetica",fontsize="10",shape=record];
  Node4 [label="D:/Users/Jack/Desktop\l/BCB/trunk/V3.01/Code\l/BCB_Code_Pro_V3.01/users\l/bsp/stm32f10x_bsp_config.h",height=0.2,width=0.4,color="black", fillcolor="grey75", style="filled", fontcolor="black"];
  Node4 -> Node5 [dir="back",color="midnightblue",fontsize="10",style="solid",fontname="Helvetica"];
  Node5 [label="D:/Users/Jack/Desktop\l/BCB/trunk/V3.01/Code\l/BCB_Code_Pro_V3.01/users\l/app/stm32f10x_it.c",height=0.2,width=0.4,color="black", fillcolor="white", style="filled",URL="$stm32f10x__it_8c.html"];
  Node4 -> Node6 [dir="back",color="midnightblue",fontsize="10",style="solid",fontname="Helvetica"];
  Node6 [label="D:/Users/Jack/Desktop\l/BCB/trunk/V3.01/Code\l/BCB_Code_Pro_V3.01/users\l/bsp/stm32f10x_bsp_config.c",height=0.2,width=0.4,color="black", fillcolor="white", style="filled",URL="$stm32f10x__bsp__config_8c.html",tooltip="board support package  detail "];
  Node4 -> Node7 [dir="back",color="midnightblue",fontsize="10",style="solid",fontname="Helvetica"];
  Node7 [label="D:/Users/Jack/Desktop\l/BCB/trunk/V3.01/Code\l/BCB_Code_Pro_V3.01/users\l/bsp/stm32f10x_iic_config.h",height=0.2,width=0.4,color="black", fillcolor="white", style="filled",URL="$stm32f10x__iic__config_8h.html",tooltip="Inter-Integrated Circuit  detail. "];
  Node7 -> Node4 [dir="back",color="midnightblue",fontsize="10",style="solid",fontname="Helvetica"];
  Node4 -> Node8 [dir="back",color="midnightblue",fontsize="10",style="solid",fontname="Helvetica"];
  Node8 [label="D:/Users/Jack/Desktop\l/BCB/trunk/V3.01/Code\l/BCB_Code_Pro_V3.01/users\l/bsp/stm32f10x_can_config.h",height=0.2,width=0.4,color="black", fillcolor="white", style="filled",URL="$stm32f10x__can__config_8h.html",tooltip="Controller Area Network  detail. "];
  Node8 -> Node4 [dir="back",color="midnightblue",fontsize="10",style="solid",fontname="Helvetica"];
  Node8 -> Node9 [dir="back",color="midnightblue",fontsize="10",style="solid",fontname="Helvetica"];
  Node9 [label="D:/Users/Jack/Desktop\l/BCB/trunk/V3.01/Code\l/BCB_Code_Pro_V3.01/users\l/bsp/stm32f10x_can_config.c",height=0.2,width=0.4,color="black", fillcolor="white", style="filled",URL="$stm32f10x__can__config_8c.html",tooltip="Controller Area Network  detail. "];
  Node4 -> Node10 [dir="back",color="midnightblue",fontsize="10",style="solid",fontname="Helvetica"];
  Node10 [label="D:/Users/Jack/Desktop\l/BCB/trunk/V3.01/Code\l/BCB_Code_Pro_V3.01/users\l/bsp/stm32f10x_iic_config.c",height=0.2,width=0.4,color="black", fillcolor="white", style="filled",URL="$stm32f10x__iic__config_8c.html",tooltip="Inter-Integrated Circuit  detail. "];
  Node4 -> Node11 [dir="back",color="midnightblue",fontsize="10",style="solid",fontname="Helvetica"];
  Node11 [label="D:/Users/Jack/Desktop\l/BCB/trunk/V3.01/Code\l/BCB_Code_Pro_V3.01/users\l/bsp/stm32f10x_usart_config.c",height=0.2,width=0.4,color="black", fillcolor="white", style="filled",URL="$stm32f10x__usart__config_8c.html"];
  Node4 -> Node12 [dir="back",color="midnightblue",fontsize="10",style="solid",fontname="Helvetica"];
  Node12 [label="D:/Users/Jack/Desktop\l/BCB/trunk/V3.01/Code\l/BCB_Code_Pro_V3.01/users\l/bsp/stm32f10x_usart_config.h",height=0.2,width=0.4,color="black", fillcolor="white", style="filled",URL="$stm32f10x__usart__config_8h.html",tooltip="Universal Synchronous/Asynchronous Receiver/Transmitter  detail. "];
  Node4 -> Node13 [dir="back",color="midnightblue",fontsize="10",style="solid",fontname="Helvetica"];
  Node13 [label="D:/Users/Jack/Desktop\l/BCB/trunk/V3.01/Code\l/BCB_Code_Pro_V3.01/users\l/Drivers/bmx055.h",height=0.2,width=0.4,color="black", fillcolor="white", style="filled",URL="$bmx055_8h.html",tooltip="bmx055  detail "];
  Node13 -> Node14 [dir="back",color="midnightblue",fontsize="10",style="solid",fontname="Helvetica"];
  Node14 [label="D:/Users/Jack/Desktop\l/BCB/trunk/V3.01/Code\l/BCB_Code_Pro_V3.01/users\l/Drivers/bmx055.c",height=0.2,width=0.4,color="black", fillcolor="white", style="filled",URL="$bmx055_8c.html",tooltip="BMX055  detail. "];
  Node4 -> Node15 [dir="back",color="midnightblue",fontsize="10",style="solid",fontname="Helvetica"];
  Node15 [label="D:/Users/Jack/Desktop\l/BCB/trunk/V3.01/Code\l/BCB_Code_Pro_V3.01/users\l/Drivers/mpu6050.h",height=0.2,width=0.4,color="black", fillcolor="white", style="filled",URL="$mpu6050_8h.html",tooltip="MPU6050  detail. "];
  Node15 -> Node16 [dir="back",color="midnightblue",fontsize="10",style="solid",fontname="Helvetica"];
  Node16 [label="D:/Users/Jack/Desktop\l/BCB/trunk/V3.01/Code\l/BCB_Code_Pro_V3.01/users\l/Drivers/mpu6050.c",height=0.2,width=0.4,color="black", fillcolor="white", style="filled",URL="$mpu6050_8c.html",tooltip="MPU6050  detail. "];
}
