digraph "TimeOutInfo_t"
{
  edge [fontname="Helvetica",fontsize="10",labelfontname="Helvetica",labelfontsize="10"];
  node [fontname="Helvetica",fontsize="10",shape=record];
  Node1 [label="TimeOutInfo_t",height=0.2,width=0.4,color="black", fillcolor="grey75", style="filled", fontcolor="black"];
  Node2 -> Node1 [dir="back",color="darkorchid3",fontsize="10",style="dashed",label=" SendChaos\nCalc\nRecvVxVr\nRemote\nRecvMoto2Gyro\nRecvMoto1Gyro\nSendGxGyRot" ,fontname="Helvetica"];
  Node2 [label="TimeOutBase_t",height=0.2,width=0.4,color="black", fillcolor="white", style="filled",URL="$struct_time_out_base__t.html"];
}
