digraph "D:/Users/Jack/Desktop/BCB/trunk/V3.01/Code/BCB_Code_Pro_V3.01/users/bsp/usart.h"
{
  edge [fontname="Helvetica",fontsize="10",labelfontname="Helvetica",labelfontsize="10"];
  node [fontname="Helvetica",fontsize="10",shape=record];
  Node14 [label="D:/Users/Jack/Desktop\l/BCB/trunk/V3.01/Code\l/BCB_Code_Pro_V3.01/users\l/bsp/usart.h",height=0.2,width=0.4,color="black", fillcolor="grey75", style="filled", fontcolor="black"];
  Node14 -> Node15 [dir="back",color="midnightblue",fontsize="10",style="solid",fontname="Helvetica"];
  Node15 [label="D:/Users/Jack/Desktop\l/BCB/trunk/V3.01/Code\l/BCB_Code_Pro_V3.01/users\l/bsp/bsp.h",height=0.2,width=0.4,color="black", fillcolor="white", style="filled",URL="$bsp_8h.html",tooltip="board support package  detail "];
  Node15 -> Node16 [dir="back",color="midnightblue",fontsize="10",style="solid",fontname="Helvetica"];
  Node16 [label="D:/Users/Jack/Desktop\l/BCB/trunk/V3.01/Code\l/BCB_Code_Pro_V3.01/users\l/bsp/beep.c",height=0.2,width=0.4,color="black", fillcolor="white", style="filled",URL="$beep_8c.html",tooltip="Controller Area Network  detail. "];
  Node15 -> Node14 [dir="back",color="midnightblue",fontsize="10",style="solid",fontname="Helvetica"];
  Node15 -> Node17 [dir="back",color="midnightblue",fontsize="10",style="solid",fontname="Helvetica"];
  Node17 [label="D:/Users/Jack/Desktop\l/BCB/trunk/V3.01/Code\l/BCB_Code_Pro_V3.01/users\l/bsp/iic.h",height=0.2,width=0.4,color="black", fillcolor="white", style="filled",URL="$iic_8h.html",tooltip="Inter-Integrated Circuit  detail. "];
  Node17 -> Node15 [dir="back",color="midnightblue",fontsize="10",style="solid",fontname="Helvetica"];
  Node17 -> Node18 [dir="back",color="midnightblue",fontsize="10",style="solid",fontname="Helvetica"];
  Node18 [label="D:/Users/Jack/Desktop\l/BCB/trunk/V3.01/Code\l/BCB_Code_Pro_V3.01/users\l/bsp/iic.c",height=0.2,width=0.4,color="black", fillcolor="white", style="filled",URL="$iic_8c.html",tooltip="Inter-Integrated Circuit  detail. "];
  Node15 -> Node19 [dir="back",color="midnightblue",fontsize="10",style="solid",fontname="Helvetica"];
  Node19 [label="D:/Users/Jack/Desktop\l/BCB/trunk/V3.01/Code\l/BCB_Code_Pro_V3.01/users\l/bsp/can.h",height=0.2,width=0.4,color="black", fillcolor="white", style="filled",URL="$can_8h.html",tooltip="Controller Area Network  detail. "];
  Node19 -> Node15 [dir="back",color="midnightblue",fontsize="10",style="solid",fontname="Helvetica"];
  Node15 -> Node20 [dir="back",color="midnightblue",fontsize="10",style="solid",fontname="Helvetica"];
  Node20 [label="D:/Users/Jack/Desktop\l/BCB/trunk/V3.01/Code\l/BCB_Code_Pro_V3.01/users\l/bsp/beep.h",height=0.2,width=0.4,color="black", fillcolor="white", style="filled",URL="$beep_8h.html",tooltip="Controller Area Network  detail. "];
  Node20 -> Node21 [dir="back",color="midnightblue",fontsize="10",style="solid",fontname="Helvetica"];
  Node21 [label="D:/Users/Jack/Desktop\l/BCB/trunk/V3.01/Code\l/BCB_Code_Pro_V3.01/users\l/app/app.c",height=0.2,width=0.4,color="black", fillcolor="white", style="filled",URL="$app_8c.html"];
  Node20 -> Node15 [dir="back",color="midnightblue",fontsize="10",style="solid",fontname="Helvetica"];
  Node15 -> Node22 [dir="back",color="midnightblue",fontsize="10",style="solid",fontname="Helvetica"];
  Node22 [label="D:/Users/Jack/Desktop\l/BCB/trunk/V3.01/Code\l/BCB_Code_Pro_V3.01/users\l/bsp/led.h",height=0.2,width=0.4,color="black", fillcolor="white", style="filled",URL="$led_8h.html",tooltip="Controller Area Network  detail. "];
  Node22 -> Node21 [dir="back",color="midnightblue",fontsize="10",style="solid",fontname="Helvetica"];
  Node22 -> Node15 [dir="back",color="midnightblue",fontsize="10",style="solid",fontname="Helvetica"];
  Node15 -> Node23 [dir="back",color="midnightblue",fontsize="10",style="solid",fontname="Helvetica"];
  Node23 [label="D:/Users/Jack/Desktop\l/BCB/trunk/V3.01/Code\l/BCB_Code_Pro_V3.01/users\l/bsp/relay.h",height=0.2,width=0.4,color="black", fillcolor="white", style="filled",URL="$relay_8h.html",tooltip="Controller Area Network  detail. "];
  Node23 -> Node15 [dir="back",color="midnightblue",fontsize="10",style="solid",fontname="Helvetica"];
  Node15 -> Node24 [dir="back",color="midnightblue",fontsize="10",style="solid",fontname="Helvetica"];
  Node24 [label="D:/Users/Jack/Desktop\l/BCB/trunk/V3.01/Code\l/BCB_Code_Pro_V3.01/users\l/bsp/sdio.h",height=0.2,width=0.4,color="black", fillcolor="white", style="filled",URL="$sdio_8h.html"];
  Node24 -> Node15 [dir="back",color="midnightblue",fontsize="10",style="solid",fontname="Helvetica"];
  Node15 -> Node25 [dir="back",color="midnightblue",fontsize="10",style="solid",fontname="Helvetica"];
  Node25 [label="D:/Users/Jack/Desktop\l/BCB/trunk/V3.01/Code\l/BCB_Code_Pro_V3.01/users\l/bsp/bsp.c",height=0.2,width=0.4,color="black", fillcolor="white", style="filled",URL="$bsp_8c.html",tooltip="board support package  detail "];
  Node15 -> Node26 [dir="back",color="midnightblue",fontsize="10",style="solid",fontname="Helvetica"];
  Node26 [label="D:/Users/Jack/Desktop\l/BCB/trunk/V3.01/Code\l/BCB_Code_Pro_V3.01/users\l/bsp/can.c",height=0.2,width=0.4,color="black", fillcolor="white", style="filled",URL="$can_8c.html",tooltip="Controller Area Network  detail. "];
  Node15 -> Node27 [dir="back",color="midnightblue",fontsize="10",style="solid",fontname="Helvetica"];
  Node27 [label="D:/Users/Jack/Desktop\l/BCB/trunk/V3.01/Code\l/BCB_Code_Pro_V3.01/users\l/bsp/led.c",height=0.2,width=0.4,color="black", fillcolor="white", style="filled",URL="$led_8c.html",tooltip="Controller Area Network  detail. "];
  Node15 -> Node28 [dir="back",color="midnightblue",fontsize="10",style="solid",fontname="Helvetica"];
  Node28 [label="D:/Users/Jack/Desktop\l/BCB/trunk/V3.01/Code\l/BCB_Code_Pro_V3.01/users\l/bsp/relay.c",height=0.2,width=0.4,color="black", fillcolor="white", style="filled",URL="$relay_8c.html",tooltip="Controller Area Network  detail. "];
  Node15 -> Node29 [dir="back",color="midnightblue",fontsize="10",style="solid",fontname="Helvetica"];
  Node29 [label="D:/Users/Jack/Desktop\l/BCB/trunk/V3.01/Code\l/BCB_Code_Pro_V3.01/users\l/bsp/rtc.h",height=0.2,width=0.4,color="black", fillcolor="white", style="filled",URL="$rtc_8h.html",tooltip="Controller Area Network  detail. "];
  Node29 -> Node30 [dir="back",color="midnightblue",fontsize="10",style="solid",fontname="Helvetica"];
  Node30 [label="D:/Users/Jack/Desktop\l/BCB/trunk/V3.01/Code\l/BCB_Code_Pro_V3.01/users\l/bsp/rtc.c",height=0.2,width=0.4,color="black", fillcolor="white", style="filled",URL="$rtc_8c.html",tooltip="Controller Area Network  detail. "];
  Node15 -> Node31 [dir="back",color="midnightblue",fontsize="10",style="solid",fontname="Helvetica"];
  Node31 [label="D:/Users/Jack/Desktop\l/BCB/trunk/V3.01/Code\l/BCB_Code_Pro_V3.01/users\l/bsp/sdio.c",height=0.2,width=0.4,color="black", fillcolor="white", style="filled",URL="$sdio_8c.html",tooltip="This file provides a set of functions needed to manage the SDIO   SD Card memory mounted on STM324xG-..."];
  Node15 -> Node32 [dir="back",color="midnightblue",fontsize="10",style="solid",fontname="Helvetica"];
  Node32 [label="D:/Users/Jack/Desktop\l/BCB/trunk/V3.01/Code\l/BCB_Code_Pro_V3.01/users\l/bsp/spi.h",height=0.2,width=0.4,color="black", fillcolor="white", style="filled",URL="$spi_8h.html",tooltip="Controller Area Network  detail. "];
  Node32 -> Node33 [dir="back",color="midnightblue",fontsize="10",style="solid",fontname="Helvetica"];
  Node33 [label="D:/Users/Jack/Desktop\l/BCB/trunk/V3.01/Code\l/BCB_Code_Pro_V3.01/users\l/bsp/spi.c",height=0.2,width=0.4,color="black", fillcolor="white", style="filled",URL="$spi_8c.html"];
  Node14 -> Node34 [dir="back",color="midnightblue",fontsize="10",style="solid",fontname="Helvetica"];
  Node34 [label="D:/Users/Jack/Desktop\l/BCB/trunk/V3.01/Code\l/BCB_Code_Pro_V3.01/users\l/bsp/usart.c",height=0.2,width=0.4,color="black", fillcolor="white", style="filled",URL="$usart_8c.html",tooltip="Universal Synchronous/Asynchronous Receiver/Transmitter  detail. "];
}
