digraph "D:/Users/Jack/Desktop/BCB/trunk/V3.01/Code/BCB_Code_Pro_V3.01/users/global/ahrs_global_macros.h"
{
  edge [fontname="Helvetica",fontsize="10",labelfontname="Helvetica",labelfontsize="10"];
  node [fontname="Helvetica",fontsize="10",shape=record];
  Node1 [label="D:/Users/Jack/Desktop\l/BCB/trunk/V3.01/Code\l/BCB_Code_Pro_V3.01/users\l/global/ahrs_global_macros.h",height=0.2,width=0.4,color="black", fillcolor="grey75", style="filled", fontcolor="black"];
  Node1 -> Node2 [dir="back",color="midnightblue",fontsize="10",style="solid"];
  Node2 [label="D:/Users/Jack/Desktop\l/BCB/trunk/V3.01/Code\l/BCB_Code_Pro_V3.01/users\l/global/ahrs_global_type.h",height=0.2,width=0.4,color="black", fillcolor="white", style="filled",URL="$ahrs__global__type_8h.html",tooltip="some global type.  detail "];
  Node2 -> Node3 [dir="back",color="midnightblue",fontsize="10",style="solid"];
  Node3 [label="D:/Users/Jack/Desktop\l/BCB/trunk/V3.01/Code\l/BCB_Code_Pro_V3.01/users\l/global/ahrs_global_func.h",height=0.2,width=0.4,color="black", fillcolor="white", style="filled",URL="$ahrs__global__func_8h.html",tooltip="some global function.  detail "];
  Node3 -> Node4 [dir="back",color="midnightblue",fontsize="10",style="solid"];
  Node4 [label="D:/Users/Jack/Desktop\l/BCB/trunk/V3.01/Code\l/BCB_Code_Pro_V3.01/users\l/global/ahrs_global_func.c",height=0.2,width=0.4,color="black", fillcolor="white", style="filled",URL="$ahrs__global__func_8c.html",tooltip="some global function.  detail "];
}
