digraph "D:/Users/Jack/Desktop/BCB/trunk/V3.01/Code/BCB_Code_Pro_V3.01/users/global/ahrs_global_type.h"
{
  edge [fontname="Helvetica",fontsize="10",labelfontname="Helvetica",labelfontsize="10"];
  node [fontname="Helvetica",fontsize="10",shape=record];
  Node0 [label="D:/Users/Jack/Desktop\l/BCB/trunk/V3.01/Code\l/BCB_Code_Pro_V3.01/users\l/global/ahrs_global_type.h",height=0.2,width=0.4,color="black", fillcolor="grey75", style="filled", fontcolor="black"];
  Node0 -> Node1 [color="midnightblue",fontsize="10",style="solid"];
  Node1 [label="ahrs_global_macros.h",height=0.2,width=0.4,color="black", fillcolor="white", style="filled",URL="$ahrs__global__macros_8h.html",tooltip="some global macros.  detail "];
  Node0 -> Node2 [color="midnightblue",fontsize="10",style="solid"];
  Node2 [label="math.h",height=0.2,width=0.4,color="grey75", fillcolor="white", style="filled"];
  Node0 -> Node3 [color="midnightblue",fontsize="10",style="solid"];
  Node3 [label="stdlib.h",height=0.2,width=0.4,color="grey75", fillcolor="white", style="filled"];
  Node0 -> Node4 [color="midnightblue",fontsize="10",style="solid"];
  Node4 [label="stdio.h",height=0.2,width=0.4,color="grey75", fillcolor="white", style="filled"];
}
