digraph "D:/Users/Jack/Desktop/BCB/trunk/V3.01/Code/BCB_Code_Pro_V3.01/users/hardware" {
  compound=true
  node [ fontsize="10", fontname="Helvetica"];
  edge [ labelfontsize="10", labelfontname="Helvetica"];
  subgraph clusterdir_9669779df7bfcf1c7bf651204e08d102 {
    graph [ bgcolor="#ddddee", pencolor="black", label="users" fontname="Helvetica", fontsize="10", URL="dir_9669779df7bfcf1c7bf651204e08d102.html"]
  dir_5e45632face1a28ccf3445682909bbfe [shape=box, label="hardware", style="filled", fillcolor="#eeeeff", pencolor="black", URL="dir_5e45632face1a28ccf3445682909bbfe.html"];
  }
  dir_c7dc295c85dcc372a126acb315ce74fa [shape=box label="global" URL="dir_c7dc295c85dcc372a126acb315ce74fa.html"];
  dir_5e45632face1a28ccf3445682909bbfe->dir_c7dc295c85dcc372a126acb315ce74fa [headlabel="3", labeldistance=1.5 headhref="dir_000005_000004.html"];
}
