digraph "SDIO_SD_Private_Variables"
{
  edge [fontname="Helvetica",fontsize="10",labelfontname="Helvetica",labelfontsize="10"];
  node [fontname="Helvetica",fontsize="10",shape=record];
  rankdir=LR;
  Node0 [label="SDIO_SD_Private_Variables",height=0.2,width=0.4,color="black", fillcolor="grey75", style="filled", fontcolor="black"];
  Node1 [label="SDIO",height=0.2,width=0.4,color="black", fillcolor="white", style="filled",URL="$group___s_d_i_o.html",tooltip="Secure Digital Input and Output. "];
  Node1->Node0 [shape=plaintext, dir="back", style="solid"];
}
