digraph "Based_Type_Defined"
{
  edge [fontname="Helvetica",fontsize="10",labelfontname="Helvetica",labelfontsize="10"];
  node [fontname="Helvetica",fontsize="10",shape=record];
  rankdir=LR;
  Node1 [label="Global_Type",height=0.2,width=0.4,color="black", fillcolor="white", style="filled",URL="$group___global___type.html",tooltip="This module defines the structure used for engineering. "];
  Node0 [label="Based_Type_Defined",height=0.2,width=0.4,color="black", fillcolor="grey75", style="filled", fontcolor="black"];
  Node1->Node0 [shape=plaintext, dir="back", style="solid"];
}
