digraph "SDIO"
{
  edge [fontname="Helvetica",fontsize="10",labelfontname="Helvetica",labelfontsize="10"];
  node [fontname="Helvetica",fontsize="10",shape=record];
  rankdir=LR;
  Node1 [label="BSP",height=0.2,width=0.4,color="black", fillcolor="white", style="filled",URL="$group___b_s_p.html",tooltip="Describing hardware devices. "];
  Node3 [label="SDIO_SD_Private_Defines",height=0.2,width=0.4,color="black", fillcolor="white", style="filled",URL="$group___s_d_i_o___s_d___private___defines.html"];
  Node7 [label="SDIO_SD_Private_Functions",height=0.2,width=0.4,color="black", fillcolor="white", style="filled",URL="$group___s_d_i_o___s_d___private___functions.html"];
  Node5 [label="SDIO_SD_Private_Variables",height=0.2,width=0.4,color="black", fillcolor="white", style="filled",URL="$group___s_d_i_o___s_d___private___variables.html"];
  Node8 [label="SDIO_SD_Exported_Types",height=0.2,width=0.4,color="black", fillcolor="white", style="filled",URL="$group___s_d_i_o___s_d___exported___types.html"];
  Node10 [label="SDIO_SD_Exported_Macros",height=0.2,width=0.4,color="black", fillcolor="white", style="filled",URL="$group___s_d_i_o___s_d___exported___macros.html"];
  Node0 [label="SDIO",height=0.2,width=0.4,color="black", fillcolor="grey75", style="filled", fontcolor="black"];
  Node4 [label="SDIO_SD_Private_Macros",height=0.2,width=0.4,color="black", fillcolor="white", style="filled",URL="$group___s_d_i_o___s_d___private___macros.html"];
  Node9 [label="SDIO_SD_Exported_Constants",height=0.2,width=0.4,color="black", fillcolor="white", style="filled",URL="$group___s_d_i_o___s_d___exported___constants.html"];
  Node6 [label="SDIO_SD_Private_Function\l_Prototypes",height=0.2,width=0.4,color="black", fillcolor="white", style="filled",URL="$group___s_d_i_o___s_d___private___function___prototypes.html"];
  Node2 [label="SDIO_SD_Private_Types",height=0.2,width=0.4,color="black", fillcolor="white", style="filled",URL="$group___s_d_i_o___s_d___private___types.html"];
  Node1->Node0 [shape=plaintext, dir="back", style="solid"];
  Node0->Node2 [shape=plaintext, dir="back", style="solid"];
  Node0->Node3 [shape=plaintext, dir="back", style="solid"];
  Node0->Node4 [shape=plaintext, dir="back", style="solid"];
  Node0->Node5 [shape=plaintext, dir="back", style="solid"];
  Node0->Node6 [shape=plaintext, dir="back", style="solid"];
  Node0->Node7 [shape=plaintext, dir="back", style="solid"];
  Node0->Node8 [shape=plaintext, dir="back", style="solid"];
  Node0->Node9 [shape=plaintext, dir="back", style="solid"];
  Node0->Node10 [shape=plaintext, dir="back", style="solid"];
}
