digraph "D:/Users/Jack/Desktop/BCB/trunk/V3.01/Code/BCB_Code_Pro_V3.01/users/bsp/stm32f10x_bsp_config.c"
{
  edge [fontname="Helvetica",fontsize="10",labelfontname="Helvetica",labelfontsize="10"];
  node [fontname="Helvetica",fontsize="10",shape=record];
  Node0 [label="D:/Users/Jack/Desktop\l/BCB/trunk/V3.01/Code\l/BCB_Code_Pro_V3.01/users\l/bsp/stm32f10x_bsp_config.c",height=0.2,width=0.4,color="black", fillcolor="grey75", style="filled", fontcolor="black"];
  Node0 -> Node1 [color="midnightblue",fontsize="10",style="solid"];
  Node1 [label="stm32f10x_bsp_config.h",height=0.2,width=0.4,color="black", fillcolor="white", style="filled",URL="$stm32f10x__bsp__config_8h.html",tooltip="board support package  detail "];
  Node1 -> Node2 [color="midnightblue",fontsize="10",style="solid"];
  Node2 [label="stm32f10x.h",height=0.2,width=0.4,color="grey75", fillcolor="white", style="filled"];
  Node1 -> Node3 [color="midnightblue",fontsize="10",style="solid"];
  Node3 [label="stm32f10x_iic_config.h",height=0.2,width=0.4,color="black", fillcolor="white", style="filled",URL="$stm32f10x__iic__config_8h.html",tooltip="Inter-Integrated Circuit  detail. "];
  Node3 -> Node1 [color="midnightblue",fontsize="10",style="solid"];
  Node1 -> Node4 [color="midnightblue",fontsize="10",style="solid"];
  Node4 [label="stm32f10x_can_config.h",height=0.2,width=0.4,color="black", fillcolor="white", style="filled",URL="$stm32f10x__can__config_8h.html",tooltip="Controller Area Network  detail. "];
  Node4 -> Node1 [color="midnightblue",fontsize="10",style="solid"];
}
