digraph "path_t"
{
  edge [fontname="Helvetica",fontsize="10",labelfontname="Helvetica",labelfontsize="10"];
  node [fontname="Helvetica",fontsize="10",shape=record];
  Node1 [label="path_t",height=0.2,width=0.4,color="black", fillcolor="grey75", style="filled", fontcolor="black"];
  Node2 -> Node1 [dir="back",color="darkorchid3",fontsize="10",style="dashed",label=" header" ];
  Node2 [label="header_t",height=0.2,width=0.4,color="black", fillcolor="white", style="filled",URL="$structheader__t.html"];
  Node3 -> Node1 [dir="back",color="darkorchid3",fontsize="10",style="dashed",label=" pose" ];
  Node3 [label="pose_t",height=0.2,width=0.4,color="black", fillcolor="white", style="filled",URL="$structpose__t.html"];
  Node2 -> Node3 [dir="back",color="darkorchid3",fontsize="10",style="dashed",label=" header" ];
  Node4 -> Node3 [dir="back",color="darkorchid3",fontsize="10",style="dashed",label=" orientation" ];
  Node4 [label="quaternion_t",height=0.2,width=0.4,color="black", fillcolor="white", style="filled",URL="$structquaternion__t.html"];
}
